# Blender v2.77 (sub 0) OBJ File: 'bone2.blend'
# www.blender.org
mtllib bone2.mtl
o Cube_Cube.001
v -0.157386 -0.112238 -0.050496
v -0.157386 0.112238 -0.050496
v -0.166855 -0.118990 -0.385644
v -0.166855 0.118990 -0.385644
v 0.157386 -0.112238 -0.050496
v 0.157386 0.112238 -0.050496
v 0.166855 -0.118990 -0.385644
v 0.166855 0.118990 -0.385644
v -0.023242 -0.099984 0.398907
v -0.035571 0.083281 0.398444
v 0.227209 -0.083281 0.341156
v 0.214881 0.099984 0.340694
v 0.197145 -0.075743 0.857497
v 0.189400 0.073413 0.860066
v 0.338925 -0.062149 0.763718
v 0.331180 0.087007 0.766286
v 0.378595 -0.050412 1.094350
v 0.372858 0.060079 1.096252
v 0.483623 -0.040342 1.024880
v 0.477886 0.070150 1.026783
v -0.130817 -0.093290 -0.936155
v -0.130817 0.093290 -0.936155
v 0.130817 -0.093290 -0.936155
v 0.130817 0.093290 -0.936155
vn -0.9996 0.0000 0.0282
vn 0.0000 -0.9989 -0.0466
vn 0.9996 0.0000 0.0282
vn -0.0240 0.9982 0.0541
vn 0.0000 -0.9998 0.0201
vn 0.0000 0.9998 0.0201
vn -0.8983 -0.0570 0.4356
vn 0.9865 0.0296 -0.1611
vn -0.9615 -0.0288 0.2734
vn 0.0337 -0.9986 0.0408
vn 0.1099 -0.9937 0.0221
vn 0.0845 -0.9962 0.0195
vn 0.9638 0.0598 -0.2597
vn -0.0584 0.9971 0.0481
vn 0.5507 0.0142 0.8346
vn 0.8715 0.0536 -0.4874
vn -0.0385 0.9955 0.0861
vn -0.7901 -0.0515 0.6108
vn 0.0000 0.0000 -1.0000
vn 0.0000 0.9989 -0.0466
vn -0.9979 0.0000 -0.0653
vn 0.9979 0.0000 -0.0653
usemtl None
s off
f 2//1 4//1 3//1 1//1
f 7//2 3//2 21//2 23//2
f 8//3 6//3 5//3 7//3
f 6//4 2//4 10//4 12//4
f 1//5 3//5 7//5 5//5
f 6//6 8//6 4//6 2//6
f 10//7 9//7 13//7 14//7
f 5//8 6//8 12//8 11//8
f 2//9 1//9 9//9 10//9
f 1//10 5//10 11//10 9//10
f 13//11 15//11 19//11 17//11
f 9//12 11//12 15//12 13//12
f 11//13 12//13 16//13 15//13
f 12//14 10//14 14//14 16//14
f 20//15 18//15 17//15 19//15
f 15//16 16//16 20//16 19//16
f 16//17 14//17 18//17 20//17
f 14//18 13//18 17//18 18//18
f 22//19 24//19 23//19 21//19
f 4//20 8//20 24//20 22//20
f 3//21 4//21 22//21 21//21
f 8//22 7//22 23//22 24//22
