# Blender v2.77 (sub 0) OBJ File: 'bonfire_sword.blend'
# www.blender.org
mtllib bonfire_sword.mtl
o Cube
v 0.231266 3.036598 0.092170
v 0.136234 3.036598 0.049962
v -0.231266 3.036598 0.092170
v -0.136234 3.036598 -0.049962
v -0.350004 1.469936 0.110136
v -0.151941 -3.792869 0.063120
v -0.350004 1.622521 0.110136
v -0.745391 1.624230 0.065260
v -0.745391 1.721950 0.065260
v -0.183657 1.420283 0.063427
v -0.175002 1.622521 0.110136
v -0.087501 1.622521 0.110136
v -0.175002 1.622521 0.055068
v -0.119762 1.622521 0.055068
v -0.119760 2.152787 0.060088
v -0.119760 2.912266 0.060088
v 0.000000 2.805331 0.092170
v 0.000000 3.267864 0.092170
v 0.000000 3.172832 0.049962
v 0.000000 3.172832 -0.049962
v 0.136234 3.036598 -0.049962
v 0.350004 1.469936 0.110136
v 0.151941 -3.792869 0.063120
v 0.350004 1.622521 0.110136
v 0.745391 1.624230 0.065260
v 0.745391 1.721950 0.065260
v 0.183657 1.420283 0.063427
v 0.000000 1.460880 0.110136
v 0.000000 -3.792869 0.063120
v 0.000000 1.622521 0.110136
v 0.000000 1.420283 0.063427
v 0.175002 1.622521 0.110136
v 0.087501 1.622521 0.110136
v 0.000000 1.622521 0.055068
v 0.175002 1.622521 0.055068
v 0.119762 1.622521 0.055068
v 0.000000 2.152787 0.060088
v 0.119760 2.152787 0.060088
v 0.000000 2.829346 0.060088
v 0.119760 2.912266 0.060088
v 0.290000 3.036598 0.000000
v 0.231266 3.036598 -0.092170
v -0.231266 3.036598 -0.092170
v -0.136234 3.036598 0.049962
v -0.350004 1.469936 -0.110136
v -0.151941 -3.792869 -0.063120
v -0.350004 1.622521 -0.110136
v -0.745391 1.624230 -0.065260
v -0.745391 1.721950 -0.065260
v -0.183657 1.420283 -0.063427
v -0.175002 1.622521 -0.110136
v -0.350004 1.622521 0.000000
v -0.175002 1.622521 0.000000
v -0.087501 1.622521 -0.110136
v -0.175002 1.622521 -0.055068
v -0.119763 1.622521 0.000000
v -0.119762 1.622521 -0.055068
v -0.119760 2.152787 0.000000
v -0.119760 2.152787 -0.060088
v -0.350004 1.469936 0.000000
v -0.151941 -3.792869 0.000000
v -0.745391 1.624230 0.000000
v -0.745391 1.721950 0.000000
v -0.183657 1.420283 0.000000
v -0.119760 2.912266 0.000000
v -0.119760 2.912266 -0.060088
v 0.000000 2.746598 0.000000
v 0.000000 2.805331 -0.092170
v 0.000000 2.900364 -0.049962
v 0.000000 2.900364 0.049962
v -0.290000 3.036598 0.000000
v 0.000000 3.326598 0.000000
v 0.000000 3.267864 -0.092170
v 0.000000 -4.506368 0.000000
v 0.350004 1.469936 -0.110136
v 0.151941 -3.792869 -0.063120
v 0.350004 1.622521 -0.110136
v 0.745391 1.624230 -0.065260
v 0.745391 1.721950 -0.065260
v 0.183657 1.420283 -0.063427
v 0.000000 1.460880 -0.110136
v 0.000000 -3.792869 -0.063120
v 0.000000 1.622521 -0.110136
v 0.000000 1.420283 -0.063427
v 0.175002 1.622521 -0.110136
v 0.350004 1.622521 0.000000
v 0.000000 1.622521 0.000000
v 0.175002 1.622521 0.000000
v 0.087501 1.622521 -0.110136
v 0.000000 1.622521 -0.055068
v 0.175002 1.622521 -0.055068
v 0.119763 1.622521 0.000000
v 0.119762 1.622521 -0.055068
v 0.119760 2.152787 0.000000
v 0.000000 2.152787 -0.060088
v 0.000000 2.152787 0.000000
v 0.119760 2.152787 -0.060088
v 0.350004 1.469936 0.000000
v 0.151941 -3.792869 0.000000
v 0.745391 1.624230 0.000000
v 0.745391 1.721950 0.000000
v 0.183657 1.420283 0.000000
v 0.119760 2.912266 0.000000
v 0.000000 2.829346 -0.060088
v 0.000000 2.829346 0.000000
v 0.119760 2.912266 -0.060088
vn 0.6447 -0.6447 0.4108
vn -0.3761 0.3761 0.8468
vn -0.7071 0.7071 0.0000
vn 0.6447 0.6447 0.4108
vn -0.3761 -0.3761 0.8468
vn -0.7071 -0.7071 0.0000
vn -0.6447 0.6447 0.4108
vn 0.3761 -0.3761 0.8468
vn 0.7071 -0.7071 0.0000
vn -0.6447 -0.6447 0.4108
vn 0.3761 0.3761 0.8468
vn 0.7071 0.7071 0.0000
vn 0.0000 -0.0000 1.0000
vn 0.0000 -0.0881 0.9961
vn -0.1128 0.0000 0.9936
vn 0.0000 -0.0001 1.0000
vn 0.0000 1.0000 0.0000
vn 0.0000 -0.6852 0.7284
vn -0.0195 -0.7546 0.6559
vn -1.0000 0.0000 0.0000
vn 0.0000 -0.0095 1.0000
vn -0.9781 -0.2083 0.0000
vn -1.0000 -0.0061 0.0000
vn -0.2860 -0.9582 0.0000
vn -0.3635 -0.9316 0.0000
vn 0.2439 0.9698 -0.0000
vn 0.1128 0.0000 0.9936
vn 0.0195 -0.7546 0.6559
vn 1.0000 0.0000 0.0000
vn 0.9781 -0.2083 0.0000
vn 1.0000 -0.0061 0.0000
vn 0.2860 -0.9582 0.0000
vn 0.3635 -0.9316 0.0000
vn -0.2439 0.9698 0.0000
vn 0.6447 -0.6447 -0.4108
vn -0.3761 0.3761 -0.8468
vn 0.6447 0.6447 -0.4108
vn -0.3761 -0.3761 -0.8468
vn -0.6447 0.6447 -0.4108
vn 0.3761 -0.3761 -0.8468
vn -0.6447 -0.6447 -0.4108
vn 0.3761 0.3761 -0.8468
vn 0.0000 -0.0000 -1.0000
vn 0.0000 -0.0881 -0.9961
vn -0.1128 0.0000 -0.9936
vn 0.0000 -0.0001 -1.0000
vn 0.0000 -0.6852 -0.7284
vn -0.0195 -0.7546 -0.6559
vn 0.0000 -0.0095 -1.0000
vn 0.1128 0.0000 -0.9936
vn 0.0195 -0.7546 -0.6559
usemtl Material
s off
f 67//1 41//1 1//1 17//1
f 17//2 1//2 2//2 70//2
f 70//3 2//3 21//3 69//3
f 41//4 72//4 18//4 1//4
f 1//5 18//5 19//5 2//5
f 2//6 19//6 20//6 21//6
f 72//7 71//7 3//7 18//7
f 18//8 3//8 44//8 19//8
f 19//9 44//9 4//9 20//9
f 71//10 67//10 17//10 3//10
f 3//11 17//11 70//11 44//11
f 44//12 70//12 69//12 4//12
f 28//13 30//13 12//13 11//13 7//13 5//13
f 6//14 74//14 29//14
f 7//15 9//15 8//15 5//15
f 10//16 6//16 29//16 31//16
f 14//17 56//17 53//17 13//17
f 11//17 13//17 53//17 52//17 7//17
f 30//17 34//17 14//17 12//17
f 12//17 14//17 13//17 11//17
f 10//18 31//18 5//18
f 5//19 31//19 28//19
f 14//20 15//20 58//20 56//20
f 34//21 37//21 15//21 14//21
f 6//22 61//22 74//22
f 10//23 64//23 61//23 6//23
f 5//24 60//24 64//24 10//24
f 8//20 9//20 63//20 62//20
f 5//25 8//25 62//25 60//25
f 7//26 52//26 63//26 9//26
f 37//13 39//13 16//13 15//13
f 15//20 16//20 65//20 58//20
f 28//13 22//13 24//13 32//13 33//13 30//13
f 23//14 29//14 74//14
f 24//27 22//27 25//27 26//27
f 27//16 31//16 29//16 23//16
f 36//17 35//17 88//17 92//17
f 32//17 24//17 86//17 88//17 35//17
f 30//17 33//17 36//17 34//17
f 33//17 32//17 35//17 36//17
f 27//18 22//18 31//18
f 22//28 28//28 31//28
f 36//29 92//29 94//29 38//29
f 34//21 36//21 38//21 37//21
f 87//20 34//20 37//20 96//20
f 23//30 74//30 99//30
f 27//31 23//31 99//31 102//31
f 22//32 27//32 102//32 98//32
f 25//29 100//29 101//29 26//29
f 22//33 98//33 100//33 25//33
f 24//34 26//34 101//34 86//34
f 96//20 37//20 39//20 105//20
f 37//13 38//13 40//13 39//13
f 38//29 94//29 103//29 40//29
f 67//35 68//35 42//35 41//35
f 68//36 69//36 21//36 42//36
f 41//37 42//37 73//37 72//37
f 42//38 21//38 20//38 73//38
f 72//39 73//39 43//39 71//39
f 73//40 20//40 4//40 43//40
f 71//41 43//41 68//41 67//41
f 43//42 4//42 69//42 68//42
f 81//43 45//43 47//43 51//43 54//43 83//43
f 46//44 82//44 74//44
f 47//45 45//45 48//45 49//45
f 50//46 84//46 82//46 46//46
f 57//17 55//17 53//17 56//17
f 51//17 47//17 52//17 53//17 55//17
f 83//17 54//17 57//17 90//17
f 54//17 51//17 55//17 57//17
f 50//47 45//47 84//47
f 45//48 81//48 84//48
f 57//20 56//20 58//20 59//20
f 90//49 57//49 59//49 95//49
f 46//22 74//22 61//22
f 50//23 46//23 61//23 64//23
f 45//24 50//24 64//24 60//24
f 48//20 62//20 63//20 49//20
f 45//25 60//25 62//25 48//25
f 47//26 49//26 63//26 52//26
f 95//43 59//43 66//43 104//43
f 59//20 58//20 65//20 66//20
f 81//43 83//43 89//43 85//43 77//43 75//43
f 76//44 74//44 82//44
f 77//50 79//50 78//50 75//50
f 80//46 76//46 82//46 84//46
f 93//17 92//17 88//17 91//17
f 85//17 91//17 88//17 86//17 77//17
f 83//17 90//17 93//17 89//17
f 89//17 93//17 91//17 85//17
f 80//47 84//47 75//47
f 75//51 84//51 81//51
f 93//29 97//29 94//29 92//29
f 90//49 95//49 97//49 93//49
f 87//20 96//20 95//20 90//20
f 76//30 99//30 74//30
f 80//31 102//31 99//31 76//31
f 75//32 98//32 102//32 80//32
f 78//29 79//29 101//29 100//29
f 75//33 78//33 100//33 98//33
f 77//34 86//34 101//34 79//34
f 96//20 105//20 104//20 95//20
f 95//43 104//43 106//43 97//43
f 97//29 106//29 103//29 94//29
